Perform Differential Expression Analysis — performDifferentialExp • SmartPhos
…
    Examples

library(SummarizedExperiment)
# Load multiAssayExperiment object
data("dda_example")
# Get SummarizedExperiment object
se <- dda_example[["Proteome"]]
colData(se) <- colData(dda_example)
# Preprocess the proteome assay
result <- preprocessProteome(se, normalize = TRUE)
# Call the function to perform differential expression analyis
performDifferentialExp(se = result, assay = "Intensity", method = "limma",
reference = "1stCrtl", target = "EGF", condition = "treatment")
#> $resDE
#> # A tibble: 83 × 8
#>    ID    log2FC  stat  pvalue  padj UniprotID            Gene     PeptideCounts
#>    <chr>  <dbl> <dbl>   <dbl> <dbl> <chr>                <chr>    <chr>        
#>  1 p99     2.02  4.75 0.00153 0.127 O00743               PPP6C    12           
#>  2 p95    -2.73 -4.03 0.00396 0.164 O00571               DDX3X    45           
#>  3 p48     2.53  3.73 0.00600 0.166 E9PRG8               C11orf98 4            
#>  4 p93     2.46  3.04 0.0165  0.276 O00560               SDCBP    10           
#>  5 p54    -2.23 -3.03 0.0166  0.276 O00151               PDLIM1   24           
#>  6 p38     2.83  2.43 0.0416  0.549 CON__P48668;P48668   KRT6C    46;46        
#>  7 p96     1.64  2.22 0.0577  0.549 O00622               CYR61    15           
#>  8 p100   -1.40 -2.21 0.0585  0.549 O00764               PDXK     19           
#>  9 p47    -2.03 -2.14 0.0655  0.549 E9PAV3;Q13765;Q9BZK3 NACA     9;9;2        
#> 10 p71    -1.55 -2.08 0.0720  0.549 O00299               CLIC1    15           
#> # ℹ 73 more rows
…
