SmartPhos: a pipeline for processing and analysis of phosphoproteomic data • SmartPhos
…
dea$seSub

## class: SummarizedExperiment 
## dim: 172 13 
## metadata(0):
## assays(2): Intensity imputed
## rownames(172): s4 s6 ... s499 s500
## rowData names(7): UniprotID Gene ... Sequence site
## colnames(13): Phospho_1stCrtl_0min_rep2 Phospho_1stCrtl_0min_rep3 ...
##   Phospho_EGF_24h_rep1 Phospho_EGF_100min_rep1
## colData names(7): sample treatment ... sampleName comparison

dea$resDE

## # A tibble: 172 × 12
##    ID    log2FC  stat   pvalue   padj UniprotID      Gene  Multiplicity Position
##    <chr>  <dbl> <dbl>    <dbl>  <dbl> <chr>          <chr>        <int> <chr>   
##  1 s447   2.18   4.83 0.000373 0.0641 O00401         WASL             1 256     
##  2 s156   2.31   3.68 0.00296  0.243  A0A590UJ23;A0… PALM3            2 436     
##  3 s184  -1.62  -3.49 0.00423  0.243  A6NKD9         CCDC…            2 251     
##  4 s318   3.15   3.07 0.00933  0.401  O00139         KIF2A            1 484     
##  5 s28   -2.47  -2.87 0.0136   0.421  A0MZ66         SHTN1            1 101     
##  6 s4     1.01   2.83 0.0147   0.421  A0AV96         RBM47            1 519     
##  7 s203  -4.26  -2.75 0.0172   0.422  A7KAX9         ARHG…            2 44      
##  8 s381   1.98   2.60 0.0226   0.486  O00231         PSMD…            1 23      
##  9 s173   0.927  2.45 0.0302   0.534  A6NFI3         ZNF3…            3 10      
## 10 s157   1.65   2.39 0.0337   0.534  A0A590UJ23;A0… PALM3            2 439     
## # ℹ 162 more rows
## # ℹ 3 more variables: Residue <chr>, Sequence <chr>, site <chr>
…
‘tsc’ is a list object which contains two values: ‘cluster’ with
tabular time series clustering results and ‘plot’ with the clusters
plots.

tsc$cluster

## # A tibble: 580 × 7
##    feature time                    value cluster   prob  cNum clusterNum   
##    <fct>   <fct>                   <dbl> <chr>    <dbl> <int> <chr>        
##  1 s499    Phospho_EGF_10min_rep2  14.1  cluster1 0.402    10 cluster1 (10)
##  2 s499    Phospho_EGF_10min_rep3  14.1  cluster1 0.402    10 cluster1 (10)
##  3 s499    Phospho_EGF_100min_rep2 14.3  cluster1 0.402    10 cluster1 (10)
##  4 s499    Phospho_EGF_100min_rep3 12.5  cluster1 0.402    10 cluster1 (10)
##  5 s499    Phospho_EGF_10min_rep1   8.96 cluster1 0.402    10 cluster1 (10)
##  6 s499    Phospho_EGF_24h_rep1    14.5  cluster1 0.402    10 cluster1 (10)
##  7 s499    Phospho_EGF_100min_rep1 14.6  cluster1 0.402    10 cluster1 (10)
##  8 s499    Phospho_EGF_0min_rep2   14.2  cluster1 0.402    10 cluster1 (10)
##  9 s499    Phospho_EGF_0min_rep3   14.2  cluster1 0.402    10 cluster1 (10)
## 10 s499    Phospho_EGF_0min_rep1   13.6  cluster1 0.402    10 cluster1 (10)
## # ℹ 570 more rows
…
# Load the gene set
genesetPath <- system.file("shiny-app/geneset", package = "SmartPhos")
inGMT <- piano::loadGSC(paste0(genesetPath,
                               "/Chemical_and_Genetic_Perturbations.gmt"), 
                        type="gmt")
# Call the function
clustEnr <- clusterEnrich(clusterTab = tsc$cluster,
                          se = newSE, inputSet = inGMT,
                          filterP = 0.05,
                          ifFDR = FALSE)
clustEnr

## $table
## # A tibble: 31 × 9
##    Name          Gene.number Set.size    pval Genes  padj cluster ifSig atLeast1
##    <chr>               <int>    <int>   <dbl> <lis> <dbl> <chr>   <lgl> <lgl>   
##  1 BROWN_MYELOI…           2        2 0.00721 <chr> 0.794 cluste… TRUE  TRUE    
##  2 WANG_CISPLAT…           2        2 0.00721 <chr> 0.794 cluste… TRUE  TRUE    
##  3 CREIGHTON_EN…           2        2 0.00721 <chr> 0.794 cluste… TRUE  TRUE    
##  4 YOSHIMURA_MA…           2        2 0.00721 <chr> 0.794 cluste… TRUE  TRUE    
##  5 JOHNSTONE_PA…           3        6 0.00819 <chr> 1     cluste… TRUE  TRUE    
##  6 IVANOVA_HEMA…           3        7 0.0138  <chr> 0.794 cluste… TRUE  TRUE    
##  7 ACEVEDO_NORM…           2        2 0.0173  <chr> 1     cluste… TRUE  TRUE    
##  8 ACEVEDO_LIVE…           2        2 0.0173  <chr> 1     cluste… TRUE  TRUE    
##  9 ACEVEDO_LIVE…           2        2 0.0173  <chr> 1     cluste… TRUE  TRUE    
## 10 FARMER_BREAS…           2        3 0.0207  <chr> 0.794 cluste… TRUE  TRUE    
## # ℹ 21 more rows
## 
## $plot
…
